{
    "name": "SpringBootDemo",
    "description": "",
    "created": 1617949964674,
    "componentType": "STANDARD",
    "ignoreQualifiers": 0,
    "importAutomatically": false,
    "useVfs": true,
    "active": true,
    "deleted": false,
    "defaultVersionType": "FULL",
    "cleanupDaysToKeep": 0,
    "cleanupCountToKeep": 0,
    "sourceConfigPluginName": "Git",
    "envPropDefs": [],
    "resPropDefs": [],
    "versionPropDefs": [],
    "propSheetGroup": {"propSheets": [
        {
            "name": "custom",
            "properties": []
        },
        {
            "name": "template",
            "properties": []
        },
        {
            "name": "GitComponentProperties",
            "properties": [
                {
                    "name": "branch",
                    "description": "",
                    "secure": false
                },
                {
                    "name": "username",
                    "description": "",
                    "secure": false
                },
                {
                    "name": "password",
                    "value": "",
                    "description": "",
                    "secure": true
                },
                {
                    "name": "watchTags",
                    "value": "true",
                    "description": "",
                    "secure": false
                },
                {
                    "name": "recursive",
                    "value": "false",
                    "description": "",
                    "secure": false
                },
                {
                    "name": "trustAllCerts",
                    "value": "false",
                    "description": "",
                    "secure": false
                },
                {
                    "name": "includes",
                    "value": "**\/*",
                    "description": "",
                    "secure": false
                },
                {
                    "name": "excludes",
                    "description": "",
                    "secure": false
                },
                {
                    "name": "gitPath",
                    "value": "git",
                    "description": "",
                    "secure": false
                },
                {
                    "name": "saveFileExecuteBits",
                    "value": "true",
                    "description": "",
                    "secure": false
                },
                {
                    "name": "extensions",
                    "description": "",
                    "secure": false
                },
                {
                    "name": "repoUrl",
                    "value": "https:\/\/gitlab.com\/ozdemos\/spring-boot-demo.git",
                    "description": "",
                    "secure": false
                }
            ]
        }
    ]},
    "processes": [
        {
            "name": "Cleanup-Deployment",
            "description": "",
            "defaultWorkingDir": "${p:resource\/work.dir}\/${p:component.name}",
            "takesVersion": true,
            "inventoryActionType": "REMOVE",
            "status": "Active",
            "active": true,
            "path": "components\/178b5553-98ed-fe0f-56f0-31534c384d86\/processes\/178d056b-fe41-7e6f-fa82-58c785516d08",
            "deleted": false,
            "propDefs": [],
            "rootActivity": {
                "edges": [
                    {
                        "to": "cleanup all",
                        "type": "ALWAYS",
                        "value": ""
                    },
                    {
                        "to": "570626bb265e696eab3a433a3e4107",
                        "from": "Delete configmap",
                        "type": "SUCCESS",
                        "value": ""
                    },
                    {
                        "to": "Delete configmap",
                        "from": "cleanup all",
                        "type": "SUCCESS",
                        "value": ""
                    },
                    {
                        "to": "234e1a899f5bfcc5e314d7cbc5ea21",
                        "from": "570626bb265e696eab3a433a3e4107",
                        "type": "SUCCESS",
                        "value": ""
                    }
                ],
                "offsets": [
                    {
                        "name": "234e1a899f5bfcc5e314d7cbc5ea21",
                        "x": -5,
                        "y": 590,
                        "h": 80,
                        "w": 120
                    },
                    {
                        "name": "Delete configmap",
                        "x": -35,
                        "y": 300,
                        "h": 70,
                        "w": 210
                    },
                    {
                        "name": "570626bb265e696eab3a433a3e4107",
                        "x": -50,
                        "y": 445,
                        "h": 70,
                        "w": 210
                    },
                    {
                        "name": "cleanup all",
                        "x": -30,
                        "y": 155,
                        "h": 70,
                        "w": 170
                    }
                ],
                "layoutMode": "auto",
                "type": "graph",
                "name": "678c4322-ee36-4ea0-a85f-0e72bc2197dd",
                "children": [
                    {
                        "type": "finish",
                        "name": "234e1a899f5bfcc5e314d7cbc5ea21",
                        "children": []
                    },
                    {
                        "allowFailure": false,
                        "useImpersonation": false,
                        "showHidden": false,
                        "impersonationUseSudo": false,
                        "pluginVersion": 9,
                        "commandName": "Shell",
                        "pluginName": "Shell",
                        "authTokenRestriction": "20000001-0001-0001-0001-000000000000",
                        "properties": {
                            "directoryOffset": ".",
                            "shellInterpreter": "",
                            "scriptBody": "#!\/bin\/bash\noc delete --server=${p:environment\/oc-url} --namespace=${p:environment\/oc-project} --token=${p:environment\/oc-token} --insecure-skip-tls-verify all -l app=springbootdemo\n",
                            "runAsDaemon": "false",
                            "outputFile": ""
                        },
                        "cachedAuthTokenRestriction": {
                            "name": "System Default",
                            "description": "Used by default for any plugin steps without a specified token restriction",
                            "restrictions": [{
                                "verb": "ALL",
                                "url": "\/*"
                            }]
                        },
                        "type": "plugin",
                        "name": "cleanup all",
                        "children": []
                    },
                    {
                        "status": "Active",
                        "type": "removeResourceInventory",
                        "name": "570626bb265e696eab3a433a3e4107",
                        "children": []
                    },
                    {
                        "allowFailure": false,
                        "useImpersonation": false,
                        "showHidden": false,
                        "impersonationUseSudo": false,
                        "pluginVersion": 17,
                        "commandName": "Delete",
                        "pluginName": "OpenShift",
                        "authTokenRestriction": "20000001-0001-0001-0001-000000000000",
                        "properties": {
                            "resource": "configmap\/spd-cm-file",
                            "flags": "",
                            "project": "${p:environment\/oc-project}",
                            "url": "${p:environment\/oc-url}",
                            "username": "",
                            "token": "${p:environment\/oc-token}",
                            "insecure": "false",
                            "home": ""
                        },
                        "cachedAuthTokenRestriction": {
                            "name": "System Default",
                            "description": "Used by default for any plugin steps without a specified token restriction",
                            "restrictions": [{
                                "verb": "ALL",
                                "url": "\/*"
                            }]
                        },
                        "type": "plugin",
                        "name": "Delete configmap",
                        "children": []
                    }
                ]
            }
        },
        {
            "name": "Deploy",
            "description": "",
            "defaultWorkingDir": "${p:resource\/work.dir}\/${p:component.name}",
            "takesVersion": true,
            "inventoryActionType": "ADD",
            "status": "Active",
            "configActionType": "ADD",
            "active": true,
            "path": "components\/178b5553-98ed-fe0f-56f0-31534c384d86\/processes\/178ca512-01c2-7575-a282-64fe9cd459f1",
            "deleted": false,
            "propDefs": [],
            "rootActivity": {
                "edges": [
                    {
                        "to": "Replace Tokens in service.yaml",
                        "from": "Replace Tokens in deployment.yaml",
                        "type": "SUCCESS",
                        "value": ""
                    },
                    {
                        "to": "Show Pods",
                        "from": "Expose Route",
                        "type": "SUCCESS",
                        "value": ""
                    },
                    {
                        "to": "Apply configmap",
                        "from": "Login",
                        "type": "SUCCESS",
                        "value": ""
                    },
                    {
                        "to": "Download Artifacts",
                        "type": "ALWAYS",
                        "value": ""
                    },
                    {
                        "to": "Login",
                        "from": "Replace Tokens in configmap.yaml",
                        "type": "SUCCESS",
                        "value": ""
                    },
                    {
                        "to": "Replace Tokens in route.yaml",
                        "from": "Replace Tokens in service.yaml",
                        "type": "SUCCESS",
                        "value": ""
                    },
                    {
                        "to": "Expose Route",
                        "from": "Apply service",
                        "type": "SUCCESS",
                        "value": ""
                    },
                    {
                        "to": "Replace Tokens in deployment.yaml",
                        "from": "Download Artifacts",
                        "type": "SUCCESS",
                        "value": ""
                    },
                    {
                        "to": "f16fef8dd50d4c0c8c09170fc4939e",
                        "from": "Show Pods",
                        "type": "SUCCESS",
                        "value": ""
                    },
                    {
                        "to": "Apply service",
                        "from": "Apply deployment",
                        "type": "SUCCESS",
                        "value": ""
                    },
                    {
                        "to": "Replace Tokens in configmap.yaml",
                        "from": "Replace Tokens in route.yaml",
                        "type": "SUCCESS",
                        "value": ""
                    },
                    {
                        "to": "Apply deployment",
                        "from": "Apply configmap",
                        "type": "SUCCESS",
                        "value": ""
                    }
                ],
                "offsets": [
                    {
                        "name": "f16fef8dd50d4c0c8c09170fc4939e",
                        "x": -10,
                        "y": 1910,
                        "h": 100,
                        "w": 170
                    },
                    {
                        "name": "Login",
                        "x": -60,
                        "y": 950,
                        "h": 110,
                        "w": 270
                    },
                    {
                        "name": "Replace Tokens in configmap.yaml",
                        "x": -220,
                        "y": 790,
                        "h": 110,
                        "w": 590
                    },
                    {
                        "name": "Download Artifacts",
                        "x": -155,
                        "y": 150,
                        "h": 110,
                        "w": 460
                    },
                    {
                        "name": "Show Pods",
                        "x": -50,
                        "y": 1750,
                        "h": 110,
                        "w": 250
                    },
                    {
                        "name": "Replace Tokens in service.yaml",
                        "x": -200,
                        "y": 470,
                        "h": 110,
                        "w": 550
                    },
                    {
                        "name": "Apply deployment",
                        "x": -100,
                        "y": 1270,
                        "h": 110,
                        "w": 350
                    },
                    {
                        "name": "Replace Tokens in deployment.yaml",
                        "x": -230,
                        "y": 310,
                        "h": 110,
                        "w": 610
                    },
                    {
                        "name": "Apply configmap",
                        "x": -95,
                        "y": 1110,
                        "h": 110,
                        "w": 340
                    },
                    {
                        "name": "Expose Route",
                        "x": -75,
                        "y": 1590,
                        "h": 110,
                        "w": 300
                    },
                    {
                        "name": "Replace Tokens in route.yaml",
                        "x": -185,
                        "y": 630,
                        "h": 110,
                        "w": 520
                    },
                    {
                        "name": "Apply service",
                        "x": -70,
                        "y": 1430,
                        "h": 110,
                        "w": 290
                    }
                ],
                "layoutMode": "auto",
                "type": "graph",
                "name": "7bc0d437-0d01-413e-a603-b4ac0fd5d055",
                "children": [
                    {
                        "type": "finish",
                        "name": "f16fef8dd50d4c0c8c09170fc4939e",
                        "children": []
                    },
                    {
                        "allowFailure": false,
                        "useImpersonation": false,
                        "showHidden": false,
                        "impersonationUseSudo": false,
                        "pluginVersion": 35,
                        "commandName": "Download Artifacts",
                        "pluginName": "UrbanCode Deploy Versioned File Storage",
                        "authTokenRestriction": "20000001-0001-0001-0001-000000000000",
                        "properties": {
                            "directoryOffset": ".",
                            "artifactSetBaseDir": "",
                            "fileIncludePatterns": "**\/*",
                            "fileExcludePatterns": "",
                            "syncMode": "true",
                            "handleIncrementalVersions": "false",
                            "fullVerification": "true",
                            "setFileExecuteBits": "false",
                            "verifyFileIntegrity": "false",
                            "charset": "",
                            "versionId": "${p:version.id}",
                            "versionType": "${p:version.type}",
                            "serverUrl": "${p:server.url}",
                            "compId": "${p:component.id}",
                            "resId": "${p:resource.id}",
                            "envId": "${p:environment.id}",
                            "maxMemory": "1G",
                            "label": ""
                        },
                        "cachedAuthTokenRestriction": {
                            "name": "System Default",
                            "description": "Used by default for any plugin steps without a specified token restriction",
                            "restrictions": [{
                                "verb": "ALL",
                                "url": "\/*"
                            }]
                        },
                        "type": "plugin",
                        "name": "Download Artifacts",
                        "children": []
                    },
                    {
                        "allowFailure": false,
                        "useImpersonation": false,
                        "showHidden": false,
                        "impersonationUseSudo": false,
                        "pluginVersion": 78,
                        "commandName": "Replace Tokens",
                        "pluginName": "File Utils",
                        "authTokenRestriction": "20000001-0001-0001-0001-000000000000",
                        "properties": {
                            "includes": "springbootk8s\/deployment\/deployment.yaml",
                            "excludes": "",
                            "envPropValues": "${p:allProperties}",
                            "propertyPrefix": "",
                            "explicitTokens": "",
                            "startDelimiter": "@",
                            "endDelimiter": "@",
                            "propFile": "deployment.yaml",
                            "dir": "",
                            "customEncoding": ""
                        },
                        "cachedAuthTokenRestriction": {
                            "name": "System Default",
                            "description": "Used by default for any plugin steps without a specified token restriction",
                            "restrictions": [{
                                "verb": "ALL",
                                "url": "\/*"
                            }]
                        },
                        "type": "plugin",
                        "name": "Replace Tokens in deployment.yaml",
                        "children": []
                    },
                    {
                        "allowFailure": false,
                        "useImpersonation": false,
                        "showHidden": false,
                        "impersonationUseSudo": false,
                        "workingDir": "${p:resource\/work.dir}\/${p:component.name}\/springbootk8s\/deployment",
                        "pluginVersion": 17,
                        "commandName": "Apply",
                        "pluginName": "OpenShift",
                        "authTokenRestriction": "20000001-0001-0001-0001-000000000000",
                        "properties": {
                            "filename": "spd-cm-file.yaml",
                            "flags": "",
                            "project": "${p:environment\/oc-project}",
                            "url": "${p:environment\/oc-url}",
                            "username": "",
                            "token": "${p:environment\/oc-token}",
                            "insecure": "false",
                            "home": ""
                        },
                        "cachedAuthTokenRestriction": {
                            "name": "System Default",
                            "description": "Used by default for any plugin steps without a specified token restriction",
                            "restrictions": [{
                                "verb": "ALL",
                                "url": "\/*"
                            }]
                        },
                        "type": "plugin",
                        "name": "Apply configmap",
                        "children": []
                    },
                    {
                        "allowFailure": false,
                        "useImpersonation": false,
                        "showHidden": false,
                        "impersonationUseSudo": false,
                        "pluginVersion": 9,
                        "commandName": "Shell",
                        "pluginName": "Shell",
                        "authTokenRestriction": "20000001-0001-0001-0001-000000000000",
                        "properties": {
                            "directoryOffset": ".",
                            "shellInterpreter": "",
                            "scriptBody": "oc login --token=${p:environment\/oc-token} --server=${p:environment\/oc-url}\noc project ${p:environment\/oc-project}\noc get pods\noc get routes",
                            "runAsDaemon": "false",
                            "outputFile": ""
                        },
                        "cachedAuthTokenRestriction": {
                            "name": "System Default",
                            "description": "Used by default for any plugin steps without a specified token restriction",
                            "restrictions": [{
                                "verb": "ALL",
                                "url": "\/*"
                            }]
                        },
                        "type": "plugin",
                        "name": "Show Pods",
                        "children": []
                    },
                    {
                        "allowFailure": false,
                        "useImpersonation": false,
                        "showHidden": false,
                        "impersonationUseSudo": false,
                        "pluginVersion": 17,
                        "commandName": "Login",
                        "pluginName": "OpenShift",
                        "authTokenRestriction": "20000001-0001-0001-0001-000000000000",
                        "properties": {
                            "project": "${p:environment\/oc-project}",
                            "url": "${p:environment\/oc-url}",
                            "username": "",
                            "password": "",
                            "token": "${p:environment\/oc-token}",
                            "certificateAuthority": "",
                            "flags": "",
                            "insecure": "false",
                            "home": ""
                        },
                        "cachedAuthTokenRestriction": {
                            "name": "System Default",
                            "description": "Used by default for any plugin steps without a specified token restriction",
                            "restrictions": [{
                                "verb": "ALL",
                                "url": "\/*"
                            }]
                        },
                        "type": "plugin",
                        "name": "Login",
                        "children": []
                    },
                    {
                        "allowFailure": false,
                        "useImpersonation": false,
                        "showHidden": false,
                        "impersonationUseSudo": false,
                        "pluginVersion": 78,
                        "commandName": "Replace Tokens",
                        "pluginName": "File Utils",
                        "authTokenRestriction": "20000001-0001-0001-0001-000000000000",
                        "properties": {
                            "includes": "springbootk8s\/deployment\/service.yaml",
                            "excludes": "",
                            "envPropValues": "${p:allProperties}",
                            "propertyPrefix": "",
                            "explicitTokens": "",
                            "startDelimiter": "@",
                            "endDelimiter": "@",
                            "propFile": "service.yaml",
                            "dir": "",
                            "customEncoding": ""
                        },
                        "cachedAuthTokenRestriction": {
                            "name": "System Default",
                            "description": "Used by default for any plugin steps without a specified token restriction",
                            "restrictions": [{
                                "verb": "ALL",
                                "url": "\/*"
                            }]
                        },
                        "type": "plugin",
                        "name": "Replace Tokens in service.yaml",
                        "children": []
                    },
                    {
                        "allowFailure": false,
                        "useImpersonation": false,
                        "showHidden": false,
                        "impersonationUseSudo": false,
                        "pluginVersion": 78,
                        "commandName": "Replace Tokens",
                        "pluginName": "File Utils",
                        "authTokenRestriction": "20000001-0001-0001-0001-000000000000",
                        "properties": {
                            "includes": "springbootk8s\/deployment\/spd-cm-file.yaml",
                            "excludes": "",
                            "envPropValues": "${p:allProperties}",
                            "propertyPrefix": "",
                            "explicitTokens": "",
                            "startDelimiter": "@",
                            "endDelimiter": "@",
                            "propFile": "spd-cm-file.yaml",
                            "dir": "",
                            "customEncoding": ""
                        },
                        "cachedAuthTokenRestriction": {
                            "name": "System Default",
                            "description": "Used by default for any plugin steps without a specified token restriction",
                            "restrictions": [{
                                "verb": "ALL",
                                "url": "\/*"
                            }]
                        },
                        "type": "plugin",
                        "name": "Replace Tokens in configmap.yaml",
                        "children": []
                    },
                    {
                        "allowFailure": false,
                        "useImpersonation": false,
                        "showHidden": false,
                        "impersonationUseSudo": false,
                        "workingDir": "${p:resource\/work.dir}\/${p:component.name}\/springbootk8s\/deployment",
                        "pluginVersion": 17,
                        "commandName": "Apply",
                        "pluginName": "OpenShift",
                        "authTokenRestriction": "20000001-0001-0001-0001-000000000000",
                        "properties": {
                            "filename": "deployment.yaml",
                            "flags": "",
                            "project": "${p:environment\/oc-project}",
                            "url": "${p:environment\/oc-url}",
                            "username": "",
                            "token": "${p:environment\/oc-token}",
                            "insecure": "false",
                            "home": ""
                        },
                        "cachedAuthTokenRestriction": {
                            "name": "System Default",
                            "description": "Used by default for any plugin steps without a specified token restriction",
                            "restrictions": [{
                                "verb": "ALL",
                                "url": "\/*"
                            }]
                        },
                        "type": "plugin",
                        "name": "Apply deployment",
                        "children": []
                    },
                    {
                        "allowFailure": false,
                        "useImpersonation": false,
                        "showHidden": false,
                        "impersonationUseSudo": false,
                        "workingDir": "${p:resource\/work.dir}\/${p:component.name}\/springbootk8s\/deployment",
                        "pluginVersion": 17,
                        "commandName": "Apply",
                        "pluginName": "OpenShift",
                        "authTokenRestriction": "20000001-0001-0001-0001-000000000000",
                        "properties": {
                            "filename": "service.yaml",
                            "flags": "",
                            "project": "${p:environment\/oc-project}",
                            "url": "${p:environment\/oc-url}",
                            "username": "",
                            "token": "${p:environment\/oc-token}",
                            "insecure": "false",
                            "home": ""
                        },
                        "cachedAuthTokenRestriction": {
                            "name": "System Default",
                            "description": "Used by default for any plugin steps without a specified token restriction",
                            "restrictions": [{
                                "verb": "ALL",
                                "url": "\/*"
                            }]
                        },
                        "type": "plugin",
                        "name": "Apply service",
                        "children": []
                    },
                    {
                        "allowFailure": false,
                        "useImpersonation": false,
                        "showHidden": false,
                        "impersonationUseSudo": false,
                        "pluginVersion": 78,
                        "commandName": "Replace Tokens",
                        "pluginName": "File Utils",
                        "authTokenRestriction": "20000001-0001-0001-0001-000000000000",
                        "properties": {
                            "includes": "springbootk8s\/deployment\/route.yaml",
                            "excludes": "",
                            "envPropValues": "${p:environment\/allProperties}",
                            "propertyPrefix": "",
                            "explicitTokens": "",
                            "startDelimiter": "@",
                            "endDelimiter": "@",
                            "propFile": "route.yaml",
                            "dir": "",
                            "customEncoding": ""
                        },
                        "cachedAuthTokenRestriction": {
                            "name": "System Default",
                            "description": "Used by default for any plugin steps without a specified token restriction",
                            "restrictions": [{
                                "verb": "ALL",
                                "url": "\/*"
                            }]
                        },
                        "type": "plugin",
                        "name": "Replace Tokens in route.yaml",
                        "children": []
                    },
                    {
                        "allowFailure": false,
                        "useImpersonation": false,
                        "showHidden": false,
                        "impersonationUseSudo": false,
                        "pluginVersion": 17,
                        "commandName": "Expose",
                        "pluginName": "OpenShift",
                        "authTokenRestriction": "20000001-0001-0001-0001-000000000000",
                        "properties": {
                            "resource": "service\/springbootdemo-service",
                            "flags": "--path=\/hello-world\n--name=helloworld",
                            "project": "${p:environment\/oc-project}",
                            "url": "${p:environment\/oc-url}",
                            "username": "",
                            "token": "${p:environment\/oc-token}",
                            "insecure": "false",
                            "home": ""
                        },
                        "cachedAuthTokenRestriction": {
                            "name": "System Default",
                            "description": "Used by default for any plugin steps without a specified token restriction",
                            "restrictions": [{
                                "verb": "ALL",
                                "url": "\/*"
                            }]
                        },
                        "type": "plugin",
                        "name": "Expose Route",
                        "children": []
                    }
                ]
            }
        }
    ],
    "configTemplates": [],
    "genericProcesses": [],
    "teamMappings": [],
    "tags": [{
        "id": "178b55cb-52f2-2a65-93ef-c155c03792c3",
        "name": "SpringBoot-Container",
        "color": "#007670",
        "description": "",
        "objectType": "Component"
    }]
}